DataPlane_Pipelined/pipe.vcd
$date
	Wed Jan 14 12:36:48 2026
$end
$version
	Icarus Verilog
$end
$timescale
	1ps
$end
$scope module tb_pipe_top $end
$var wire 1 ! rx_ready $end
$var reg 64 " action_default_data [63:0] $end
$var reg 4 # action_wr_addr [3:0] $end
$var reg 64 $ action_wr_data [63:0] $end
$var reg 1 % action_wr_default $end
$var reg 1 & action_wr_en $end
$var reg 1 ' clk $end
$var reg 1 ( rst_n $end
$var reg 8 ) rx_data [7:0] $end
$var reg 1 * rx_last $end
$var reg 1 + rx_valid $end
$var reg 4 , tcam_wr_addr [3:0] $end
$var reg 128 - tcam_wr_data [127:0] $end
$var reg 1 . tcam_wr_en $end
$var reg 1 / tcam_wr_is_mask $end
$var integer 32 0 k [31:0] $end
$scope module dut $end
$var wire 64 1 action_default_data [63:0] $end
$var wire 4 2 action_wr_addr [3:0] $end
$var wire 64 3 action_wr_data [63:0] $end
$var wire 1 % action_wr_default $end
$var wire 1 & action_wr_en $end
$var wire 1 ' clk $end
$var wire 1 4 key_ready $end
$var wire 8 5 mac_rx_data [7:0] $end
$var wire 1 * mac_rx_last $end
$var wire 1 + mac_rx_valid $end
$var wire 1 ( rst_n $end
$var wire 4 6 tcam_wr_addr [3:0] $end
$var wire 128 7 tcam_wr_data [127:0] $end
$var wire 1 . tcam_wr_en $end
$var wire 1 / tcam_wr_is_mask $end
$var wire 12 8 vlan_id [11:0] $end
$var wire 128 9 tcam_key [127:0] $end
$var wire 4 : tcam_hit_index [3:0] $end
$var wire 1 ; tcam_hit $end
$var wire 16 < src_port [15:0] $end
$var wire 32 = src_ip [31:0] $end
$var wire 1 > parser_valid $end
$var wire 1 ? parser_ready $end
$var wire 1 ! mac_rx_ready $end
$var wire 1 @ key_valid $end
$var wire 1 A is_ipv6 $end
$var wire 1 B is_ipv4 $end
$var wire 1 C is_fragmented $end
$var wire 1 D is_arp $end
$var wire 8 E ip_proto [7:0] $end
$var wire 1 F header_valid $end
$var wire 1 G header_ready $end
$var wire 9 H header_len [8:0] $end
$var wire 1536 I header_flat [1535:0] $end
$var wire 1 J hdr_valid $end
$var wire 1 K hdr_ready $end
$var wire 1536 L hdr_flat [1535:0] $end
$var wire 1 M fifo_valid $end
$var wire 1 N fifo_ready $end
$var wire 1 O fifo_last $end
$var wire 8 P fifo_data [7:0] $end
$var wire 16 Q dst_port [15:0] $end
$var wire 32 R dst_ip [31:0] $end
$var wire 6 S dscp [5:0] $end
$var wire 1 T action_valid $end
$var wire 1 U action_pipe_valid $end
$var wire 4 V action_index [3:0] $end
$var wire 1 W action_hit $end
$var wire 64 X action [63:0] $end
$var parameter 32 Y ACTION_W $end
$var parameter 32 Z FIFO_ADDR_W $end
$var parameter 32 [ FIFO_DEPTH $end
$var parameter 32 \ HEADER_BYTES $end
$var parameter 32 ] TCAM_ENTRIES $end
$scope module u_action_pipe $end
$var wire 1 ' clk $end
$var wire 64 ^ default_data [63:0] $end
$var wire 1 ( rst_n $end
$var wire 4 _ wr_addr [3:0] $end
$var wire 64 ` wr_data [63:0] $end
$var wire 1 % wr_default $end
$var wire 1 & wr_en $end
$var wire 1 U tcam_valid $end
$var wire 4 a hit_index [3:0] $end
$var wire 1 W hit $end
$var parameter 32 b ACTION_W $end
$var parameter 32 c ENTRIES $end
$var reg 64 d action [63:0] $end
$var reg 1 T action_valid $end
$var reg 64 e default_action [63:0] $end
$upscope $end
$scope module u_header_buffer_pipe_fifo $end
$var wire 1 ' clk $end
$var wire 1 ( rst_n $end
$var wire 1 G header_ready $end
$var wire 1 M fifo_valid $end
$var wire 1 N fifo_ready $end
$var wire 1 O fifo_last $end
$var wire 8 f fifo_data [7:0] $end
$var parameter 32 g HEADER_BYTES $end
$var parameter 32 h PTR_W $end
$var reg 1536 i header_flat [1535:0] $end
$var reg 9 j header_len [8:0] $end
$var reg 1 F header_valid $end
$var reg 1 k in_packet $end
$var reg 9 l wr_ptr [8:0] $end
$var integer 32 m i [31:0] $end
$upscope $end
$scope module u_header_to_parser_pipe_reg $end
$var wire 1 ' clk $end
$var wire 1536 n header_flat [1535:0] $end
$var wire 9 o header_len [8:0] $end
$var wire 1 G header_ready $end
$var wire 1 F header_valid $end
$var wire 1 ( rst_n $end
$var wire 1 K hdr_ready $end
$var parameter 32 p HEADER_BYTES $end
$var parameter 32 q PTR_W $end
$var reg 1536 r hdr_flat [1535:0] $end
$var reg 1 J hdr_valid $end
$upscope $end
$scope module u_key_builder_pipe $end
$var wire 12 s vlan_id [11:0] $end
$var wire 128 t tcam_key [127:0] $end
$var wire 16 u src_port [15:0] $end
$var wire 32 v src_ip [31:0] $end
$var wire 1 A is_ipv6 $end
$var wire 1 B is_ipv4 $end
$var wire 1 C is_fragmented $end
$var wire 1 D is_arp $end
$var wire 8 w ip_proto [7:0] $end
$var wire 16 x dst_port [15:0] $end
$var wire 32 y dst_ip [31:0] $end
$var wire 6 z dscp [5:0] $end
$upscope $end
$scope module u_mac_rx_fifo $end
$var wire 1 ' clk $end
$var wire 1 N fifo_ready $end
$var wire 1 { read_en $end
$var wire 1 ( rst_n $end
$var wire 8 | rx_data [7:0] $end
$var wire 1 * rx_last $end
$var wire 1 + rx_valid $end
$var wire 1 } write_en $end
$var wire 1 ! rx_ready $end
$var parameter 32 ~ ADDR_W $end
$var parameter 32 !" DEPTH $end
$var reg 5 "" count [4:0] $end
$var reg 8 #" fifo_data [7:0] $end
$var reg 1 O fifo_last $end
$var reg 1 M fifo_valid $end
$var reg 5 $" rd_ptr [4:0] $end
$var reg 5 %" wr_ptr [4:0] $end
$var integer 32 &" i [31:0] $end
$upscope $end
$scope module u_parser_fsm_pipe $end
$var wire 1 ' clk $end
$var wire 1536 '" hdr_flat [1535:0] $end
$var wire 1 K hdr_ready $end
$var wire 1 J hdr_valid $end
$var wire 1 ( rst_n $end
$var wire 1 > parser_valid $end
$var wire 1 ? parser_ready $end
$var parameter 32 (" HEADER_BYTES $end
$var parameter 32 )" PTR_W $end
$var parameter 4 *" S_DONE $end
$var parameter 4 +" S_ETH $end
$var parameter 4 ," S_IDLE $end
$var parameter 4 -" S_IPV4_1 $end
$var parameter 4 ." S_IPV4_2 $end
$var parameter 4 /" S_IPV4_3 $end
$var parameter 4 0" S_IPV4_4 $end
$var parameter 4 1" S_IPV4_5 $end
$var parameter 4 2" S_IPV6 $end
$var parameter 4 3" S_L4 $end
$var parameter 4 4" S_VLAN $end
$var parameter 4 5" S_WAIT $end
$var reg 8 6" byte_tmp [7:0] $end
$var reg 6 7" dscp [5:0] $end
$var reg 32 8" dst_ip [31:0] $end
$var reg 48 9" dst_mac [47:0] $end
$var reg 16 :" dst_port [15:0] $end
$var reg 2 ;" ecn [1:0] $end
$var reg 16 <" ethertype [15:0] $end
$var reg 1 =" has_vlan $end
$var reg 8 >" icmp_type [7:0] $end
$var reg 8 ?" ip_proto [7:0] $end
$var reg 1 D is_arp $end
$var reg 1 C is_fragmented $end
$var reg 1 B is_ipv4 $end
$var reg 1 A is_ipv6 $end
$var reg 16 @" l3_offset [15:0] $end
$var reg 16 A" l4_offset [15:0] $end
$var reg 32 B" src_ip [31:0] $end
$var reg 48 C" src_mac [47:0] $end
$var reg 16 D" src_port [15:0] $end
$var reg 4 E" state [3:0] $end
$var reg 8 F" tcp_flags [7:0] $end
$var reg 8 G" ttl [7:0] $end
$var reg 12 H" vlan_id [11:0] $end
$upscope $end
$scope module u_parser_to_key_pipe $end
$var wire 1 ' clk $end
$var wire 6 I" dscp [5:0] $end
$var wire 32 J" dst_ip [31:0] $end
$var wire 16 K" dst_port [15:0] $end
$var wire 8 L" ip_proto [7:0] $end
$var wire 1 D is_arp $end
$var wire 1 C is_fragmented $end
$var wire 1 B is_ipv4 $end
$var wire 1 A is_ipv6 $end
$var wire 1 4 key_ready $end
$var wire 1 > parser_valid $end
$var wire 1 ( rst_n $end
$var wire 32 M" src_ip [31:0] $end
$var wire 16 N" src_port [15:0] $end
$var wire 12 O" vlan_id [11:0] $end
$var wire 1 ? parser_ready $end
$var reg 6 P" key_dscp [5:0] $end
$var reg 32 Q" key_dst_ip [31:0] $end
$var reg 16 R" key_dst_port [15:0] $end
$var reg 8 S" key_ip_proto [7:0] $end
$var reg 1 T" key_is_arp $end
$var reg 1 U" key_is_fragmented $end
$var reg 1 V" key_is_ipv4 $end
$var reg 1 W" key_is_ipv6 $end
$var reg 32 X" key_src_ip [31:0] $end
$var reg 16 Y" key_src_port [15:0] $end
$var reg 1 @ key_valid $end
$var reg 12 Z" key_vlan_id [11:0] $end
$upscope $end
$scope module u_tcam_ctrl_pipe $end
$var wire 1 ' clk $end
$var wire 128 [" key [127:0] $end
$var wire 1 @ key_valid $end
$var wire 1 ( rst_n $end
$var wire 4 \" wr_addr [3:0] $end
$var wire 128 ]" wr_data [127:0] $end
$var wire 1 . wr_en $end
$var wire 1 / wr_is_mask $end
$var wire 16 ^" match [15:0] $end
$var parameter 32 _" ENTRIES $end
$var parameter 32 `" IDX_W $end
$var parameter 32 a" KEY_W $end
$var reg 1 ; hit $end
$var reg 4 b" hit_index [3:0] $end
$var integer 32 c" j [31:0] $end
$scope begin TCAM_COMPARE[0] $end
$var parameter 2 d" i $end
$upscope $end
$scope begin TCAM_COMPARE[1] $end
$var parameter 2 e" i $end
$upscope $end
$scope begin TCAM_COMPARE[2] $end
$var parameter 3 f" i $end
$upscope $end
$scope begin TCAM_COMPARE[3] $end
$var parameter 3 g" i $end
$upscope $end
$scope begin TCAM_COMPARE[4] $end
$var parameter 4 h" i $end
$upscope $end
$scope begin TCAM_COMPARE[5] $end
$var parameter 4 i" i $end
$upscope $end
$scope begin TCAM_COMPARE[6] $end
$var parameter 4 j" i $end
$upscope $end
$scope begin TCAM_COMPARE[7] $end
$var parameter 4 k" i $end
$upscope $end
$scope begin TCAM_COMPARE[8] $end
$var parameter 5 l" i $end
$upscope $end
$scope begin TCAM_COMPARE[9] $end
$var parameter 5 m" i $end
$upscope $end
$scope begin TCAM_COMPARE[10] $end
$var parameter 5 n" i $end
$upscope $end
$scope begin TCAM_COMPARE[11] $end
$var parameter 5 o" i $end
$upscope $end
$scope begin TCAM_COMPARE[12] $end
$var parameter 5 p" i $end
$upscope $end
$scope begin TCAM_COMPARE[13] $end
$var parameter 5 q" i $end
$upscope $end
$scope begin TCAM_COMPARE[14] $end
$var parameter 5 r" i $end
$upscope $end
$scope begin TCAM_COMPARE[15] $end
$var parameter 5 s" i $end
$upscope $end
$upscope $end
$scope module u_tcam_to_action_pipe $end
$var wire 1 t" action_ready $end
$var wire 1 ' clk $end
$var wire 1 ( rst_n $end
$var wire 1 ; tcam_hit $end
$var wire 4 u" tcam_hit_index [3:0] $end
$var wire 1 @ tcam_valid $end
$var wire 1 v" tcam_ready $end
$var reg 1 W action_hit $end
$var reg 4 w" action_index [3:0] $end
$var reg 1 U action_valid $end
$upscope $end
$upscope $end
$scope task action_write $end
$var reg 64 x" act [63:0] $end
$var reg 4 y" idx [3:0] $end
$upscope $end
$scope task action_write_default $end
$var reg 64 z" act [63:0] $end
$upscope $end
$scope task send_byte $end
$var reg 8 {" b [7:0] $end
$var reg 1 |" last $end
$upscope $end
$scope task send_packet $end
$var reg 8 }" seed [7:0] $end
$var integer 32 ~" i [31:0] $end
$var integer 32 !# len [31:0] $end
$upscope $end
$scope task tcam_write_mask $end
$var reg 4 "# idx [3:0] $end
$var reg 128 ## mask [127:0] $end
$upscope $end
$scope task tcam_write_value $end
$var reg 4 $# idx [3:0] $end
$var reg 128 %# value [127:0] $end
$upscope $end
$upscope $end
$scope module tb_pipe_top $end
$scope module dut $end
$scope module u_mac_rx_fifo $end
$var reg 8 &# \data_mem[0] [7:0] $end
$upscope $end
$upscope $end
$upscope $end
$scope module tb_pipe_top $end
$scope module dut $end
$scope module u_mac_rx_fifo $end
$var reg 1 '# \last_mem[0] $end
$upscope $end
$upscope $end
$upscope $end
$scope module tb_pipe_top $end
$scope module dut $end
$scope module u_mac_rx_fifo $end
$var reg 8 (# \data_mem[1] [7:0] $end
$upscope $end
$upscope $end
$upscope $end
$scope module tb_pipe_top $end
$scope module dut $end
$scope module u_mac_rx_fifo $end
$var reg 1 )# \last_mem[1] $end
$upscope $end
$upscope $end
$upscope $end
$scope module tb_pipe_top $end
$scope module dut $end
$scope module u_mac_rx_fifo $end
$var reg 8 *# \data_mem[2] [7:0] $end
$upscope $end
$upscope $end
$upscope $end
$scope module tb_pipe_top $end
$scope module dut $end
$scope module u_mac_rx_fifo $end
$var reg 1 +# \last_mem[2] $end
$upscope $end
$upscope $end
$upscope $end
$scope module tb_pipe_top $end
$scope module dut $end
$scope module u_mac_rx_fifo $end
$var reg 8 ,# \data_mem[3] [7:0] $end
$upscope $end
$upscope $end
$upscope $end
$scope module tb_pipe_top $end
$scope module dut $end
$scope module u_mac_rx_fifo $end
$var reg 1 -# \last_mem[3] $end
$upscope $end
$upscope $end
$upscope $end
$scope module tb_pipe_top $end
$scope module dut $end
$scope module u_mac_rx_fifo $end
$var reg 8 .# \data_mem[4] [7:0] $end
$upscope $end
$upscope $end
$upscope $end
$scope module tb_pipe_top $end
$scope module dut $end
$scope module u_mac_rx_fifo $end
$var reg 1 /# \last_mem[4] $end
$upscope $end
$upscope $end
$upscope $end
$scope module tb_pipe_top $end
$scope module dut $end
$scope module u_mac_rx_fifo $end
$var reg 8 0# \data_mem[5] [7:0] $end
$upscope $end
$upscope $end
$upscope $end
$scope module tb_pipe_top $end
$scope module dut $end
$scope module u_mac_rx_fifo $end
$var reg 1 1# \last_mem[5] $end
$upscope $end
$upscope $end
$upscope $end
$scope module tb_pipe_top $end
$scope module dut $end
$scope module u_mac_rx_fifo $end
$var reg 8 2# \data_mem[6] [7:0] $end
$upscope $end
$upscope $end
$upscope $end
$scope module tb_pipe_top $end
$scope module dut $end
$scope module u_mac_rx_fifo $end
$var reg 1 3# \last_mem[6] $end
$upscope $end
$upscope $end
$upscope $end
$scope module tb_pipe_top $end
$scope module dut $end
$scope module u_mac_rx_fifo $end
$var reg 8 4# \data_mem[7] [7:0] $end
$upscope $end
$upscope $end
$upscope $end
$scope module tb_pipe_top $end
$scope module dut $end
$scope module u_mac_rx_fifo $end
$var reg 1 5# \last_mem[7] $end
$upscope $end
$upscope $end
$upscope $end
$scope module tb_pipe_top $end
$scope module dut $end
$scope module u_mac_rx_fifo $end
$var reg 8 6# \data_mem[8] [7:0] $end
$upscope $end
$upscope $end
$upscope $end
$scope module tb_pipe_top $end
$scope module dut $end
$scope module u_mac_rx_fifo $end
$var reg 1 7# \last_mem[8] $end
$upscope $end
$upscope $end
$upscope $end
$scope module tb_pipe_top $end
$scope module dut $end
$scope module u_mac_rx_fifo $end
$var reg 8 8# \data_mem[9] [7:0] $end
$upscope $end
$upscope $end
$upscope $end
$scope module tb_pipe_top $end
$scope module dut $end
$scope module u_mac_rx_fifo $end
$var reg 1 9# \last_mem[9] $end
$upscope $end
$upscope $end
$upscope $end
$scope module tb_pipe_top $end
$scope module dut $end
$scope module u_mac_rx_fifo $end
$var reg 8 :# \data_mem[10] [7:0] $end
$upscope $end
$upscope $end
$upscope $end
$scope module tb_pipe_top $end
$scope module dut $end
$scope module u_mac_rx_fifo $end
$var reg 1 ;# \last_mem[10] $end
$upscope $end
$upscope $end
$upscope $end
$scope module tb_pipe_top $end
$scope module dut $end
$scope module u_mac_rx_fifo $end
$var reg 8 <# \data_mem[11] [7:0] $end
$upscope $end
$upscope $end
$upscope $end
$scope module tb_pipe_top $end
$scope module dut $end
$scope module u_mac_rx_fifo $end
$var reg 1 =# \last_mem[11] $end
$upscope $end
$upscope $end
$upscope $end
$scope module tb_pipe_top $end
$scope module dut $end
$scope module u_mac_rx_fifo $end
$var reg 8 ># \data_mem[12] [7:0] $end
$upscope $end
$upscope $end
$upscope $end
$scope module tb_pipe_top $end
$scope module dut $end
$scope module u_mac_rx_fifo $end
$var reg 1 ?# \last_mem[12] $end
$upscope $end
$upscope $end
$upscope $end
$scope module tb_pipe_top $end
$scope module dut $end
$scope module u_mac_rx_fifo $end
$var reg 8 @# \data_mem[13] [7:0] $end
$upscope $end
$upscope $end
$upscope $end
$scope module tb_pipe_top $end
$scope module dut $end
$scope module u_mac_rx_fifo $end
$var reg 1 A# \last_mem[13] $end
$upscope $end
$upscope $end
$upscope $end
$scope module tb_pipe_top $end
$scope module dut $end
$scope module u_mac_rx_fifo $end
$var reg 8 B# \data_mem[14] [7:0] $end
$upscope $end
$upscope $end
$upscope $end
$scope module tb_pipe_top $end
$scope module dut $end
$scope module u_mac_rx_fifo $end
$var reg 1 C# \last_mem[14] $end
$upscope $end
$upscope $end
$upscope $end
$scope module tb_pipe_top $end
$scope module dut $end
$scope module u_mac_rx_fifo $end
$var reg 8 D# \data_mem[15] [7:0] $end
$upscope $end
$upscope $end
$upscope $end
$scope module tb_pipe_top $end
$scope module dut $end
$scope module u_mac_rx_fifo $end
$var reg 1 E# \last_mem[15] $end
$upscope $end
$upscope $end
$upscope $end
$enddefinitions $end
$comment Show the parameter values. $end
$dumpall
b1111 s"
b1110 r"
b1101 q"
b1100 p"
b1011 o"
b1010 n"
b1001 m"
b1000 l"
b111 k"
b110 j"
b101 i"
b100 h"
b11 g"
b10 f"
b1 e"
b0 d"
b10000000 a"
b100 `"
b10000 _"
b1 5"
b11 4"
b1010 3"
b1001 2"
b1000 1"
b111 0"
b110 /"
b101 ."
b100 -"
b0 ,"
b10 +"
b1011 *"
b1000 )"
b11000000 ("
b10000 !"
b100 ~
b1000 q
b11000000 p
b1000 h
b11000000 g
b10000 c
b1000000 b
b10000 ]
b11000000 \
b10000 [
b100 Z
b1000000 Y
$end
#0
$dumpvars
0E#
b0 D#
0C#
b0 B#
0A#
b0 @#
0?#
b0 >#
0=#
b0 <#
0;#
b0 :#
09#
b0 8#
07#
b0 6#
05#
b0 4#
03#
b0 2#
01#
b0 0#
0/#
b0 .#
0-#
b0 ,#
0+#
b0 *#
0)#
b0 (#
0'#
b0 &#
bx %#
bx $#
bx ##
bx "#
bx !#
bx ~"
bx }"
x|"
bx {"
bx z"
bx y"
bx x"
bx w"
1v"
b0 u"
1t"
bx c"
b0 b"
bx ^"
bx ]"
bx \"
bx00 ["
bx Z"
bx Y"
bx X"
xW"
xV"
xU"
xT"
bx S"
bx R"
bx Q"
bx P"
bx O"
bx N"
bx M"
bx L"
bx K"
bx J"
bx I"
bx H"
bx G"
bx F"
b0 E"
bx D"
bx C"
bx B"
bx A"
bx @"
bx ?"
bx >"
x="
bx <"
bx ;"
bx :"
bx 9"
bx 8"
bx 7"
bx 6"
b0 '"
b10000 &"
b0 %"
b0 $"
b0 #"
b0 ""
0}
b0 |
0{
bx z
bx y
bx x
bx w
bx v
bx u
bx00 t
bx s
b0 r
b0 o
b0 n
b11000000 m
b0 l
0k
b0 j
b0 i
b0 f
bx e
bx d
bx a
bx `
bx _
bx ^
bx X
xW
bx V
0U
0T
bx S
bx R
bx Q
b0 P
0O
1N
0M
b0 L
1K
0J
b0 I
b0 H
1G
0F
bx E
xD
xC
xB
xA
0@
1?
0>
bx =
bx <
0;
b0 :
bx00 9
bx 8
bx 7
bx 6
b0 5
14
bx 3
bx 2
bx 1
b10000 0
x/
0.
bx -
bx ,
0+
0*
b0 )
0(
0'
0&
0%
bx $
bx #
bx "
1!
$end
#2000
0E#
b0 D#
0C#
b0 B#
0A#
b0 @#
0?#
b0 >#
0=#
b0 <#
0;#
b0 :#
09#
b0 8#
07#
b0 6#
05#
b0 4#
03#
b0 2#
01#
b0 0#
0/#
b0 .#
0-#
b0 ,#
0+#
b0 *#
0)#
b0 (#
0'#
b0 &#
b11000000 m
b10000 &"
1'
#4000
0'
#6000
0E#
b0 D#
0C#
b0 B#
0A#
b0 @#
0?#
b0 >#
0=#
b0 <#
0;#
b0 :#
09#
b0 8#
07#
b0 6#
05#
b0 4#
03#
b0 2#
01#
b0 0#
0/#
b0 .#
0-#
b0 ,#
0+#
b0 *#
0)#
b0 (#
0'#
b0 &#
b10000 &"
b11000000 m
1'
#8000
0'
#10000
0E#
b0 D#
0C#
b0 B#
0A#
b0 @#
0?#
b0 >#
0=#
b0 <#
0;#
b0 :#
09#
b0 8#
07#
b0 6#
05#
b0 4#
03#
b0 2#
01#
b0 0#
0/#
b0 .#
0-#
b0 ,#
0+#
b0 *#
0)#
b0 (#
0'#
b0 &#
b11000000 m
b10000 &"
1'
#12000
0'
#14000
0E#
b0 D#
0C#
b0 B#
0A#
b0 @#
0?#
b0 >#
0=#
b0 <#
0;#
b0 :#
09#
b0 8#
07#
b0 6#
05#
b0 4#
03#
b0 2#
01#
b0 0#
0/#
b0 .#
0-#
b0 ,#
0+#
b0 *#
0)#
b0 (#
0'#
b0 &#
b10000 &"
b11000000 m
1'
#16000
0'
#18000
0E#
b0 D#
0C#
b0 B#
0A#
b0 @#
0?#
b0 >#
0=#
b0 <#
0;#
b0 :#
09#
b0 8#
07#
b0 6#
05#
b0 4#
03#
b0 2#
01#
b0 0#
0/#
b0 .#
0-#
b0 ,#
0+#
b0 *#
0)#
b0 (#
0'#
b0 &#
b11000000 m
b10000 &"
1'
#20000
0'
#22000
0E#
b0 D#
0C#
b0 B#
0A#
b0 @#
0?#
b0 >#
0=#
b0 <#
0;#
b0 :#
09#
b0 8#
07#
b0 6#
05#
b0 4#
03#
b0 2#
01#
b0 0#
0/#
b0 .#
0-#
b0 ,#
0+#
b0 *#
0)#
b0 (#
0'#
b0 &#
b10000 &"
b11000000 m
1'
#24000
0'
#26000
0E#
b0 D#
0C#
b0 B#
0A#
b0 @#
0?#
b0 >#
0=#
b0 <#
0;#
b0 :#
09#
b0 8#
07#
b0 6#
05#
b0 4#
03#
b0 2#
01#
b0 0#
0/#
b0 .#
0-#
b0 ,#
0+#
b0 *#
0)#
b0 (#
0'#
b0 &#
b11000000 m
b10000 &"
1'
#28000
0'
#30000
0E#
b0 D#
0C#
b0 B#
0A#
b0 @#
0?#
b0 >#
0=#
b0 <#
0;#
b0 :#
09#
b0 8#
07#
b0 6#
05#
b0 4#
03#
b0 2#
01#
b0 0#
0/#
b0 .#
0-#
b0 ,#
0+#
b0 *#
0)#
b0 (#
0'#
b0 &#
b10000 &"
b11000000 m
1'
#32000
0'
#34000
0E#
b0 D#
0C#
b0 B#
0A#
b0 @#
0?#
b0 >#
0=#
b0 <#
0;#
b0 :#
09#
b0 8#
07#
b0 6#
05#
b0 4#
03#
b0 2#
01#
b0 0#
0/#
b0 .#
0-#
b0 ,#
0+#
b0 *#
0)#
b0 (#
0'#
b0 &#
b11000000 m
b10000 &"
1'
#36000
0'
#38000
0E#
b0 D#
0C#
b0 B#
0A#
b0 @#
0?#
b0 >#
0=#
b0 <#
0;#
b0 :#
09#
b0 8#
07#
b0 6#
05#
b0 4#
03#
b0 2#
01#
b0 0#
0/#
b0 .#
0-#
b0 ,#
0+#
b0 *#
0)#
b0 (#
0'#
b0 &#
b10000 &"
b11000000 m
1'
#40000
0'
1(
#42000
1'
#44000
0'
#46000
1'
#48000
0'
#50000
1'
#52000
0'
#54000
1'
#56000
0'
#58000
1'
#60000
0'
b11000000000000000000000000000000000000000000000000000100000 %#
b0 $#
#62000
b11000000000000000000000000000000000000000000000000000100000 -
b11000000000000000000000000000000000000000000000000000100000 7
b11000000000000000000000000000000000000000000000000000100000 ]"
b0 ,
b0 6
b0 \"
0/
1.
1'
#64000
0'
#66000
b11111111111111111111111111111111111111111111111111111111111111110000000011111111111111111111111111111111000000000000000000100000 ##
b0 "#
0.
1'
#68000
0'
#70000
b11111111111111111111111111111111111111111111111111111111111111110000000011111111111111111111111111111111000000000000000000100000 -
b11111111111111111111111111111111111111111111111111111111111111110000000011111111111111111111111111111111000000000000000000100000 7
b11111111111111111111111111111111111111111111111111111111111111110000000011111111111111111111111111111111000000000000000000100000 ]"
1/
1.
1'
#72000
0'
#74000
b1000100000000000000000000000000000000000000000000000000100000 %#
b1 $#
0.
1'
#76000
0'
#78000
b1000100000000000000000000000000000000000000000000000000100000 -
b1000100000000000000000000000000000000000000000000000000100000 7
b1000100000000000000000000000000000000000000000000000000100000 ]"
b1 ,
b1 6
b1 \"
0/
1.
1'
#80000
0'
#82000
b1 "#
0.
1'
#84000
0'
#86000
b11111111111111111111111111111111111111111111111111111111111111110000000011111111111111111111111111111111000000000000000000100000 -
b11111111111111111111111111111111111111111111111111111111111111110000000011111111111111111111111111111111000000000000000000100000 7
b11111111111111111111111111111111111111111111111111111111111111110000000011111111111111111111111111111111000000000000000000100000 ]"
1/
1.
1'
#88000
0'
#90000
b1010101010101010101110111011101111001100110011001101110111011101 x"
b0 y"
0.
1'
#92000
0'
#94000
b1010101010101010101110111011101111001100110011001101110111011101 $
b1010101010101010101110111011101111001100110011001101110111011101 3
b1010101010101010101110111011101111001100110011001101110111011101 `
b0 #
b0 2
b0 _
1&
1'
#96000
0'
#98000
b1000100010001001000100010001000110011001100110100010001000100 x"
b1 y"
0&
1'
#100000
0'
#102000
b1000100010001001000100010001000110011001100110100010001000100 $
b1000100010001001000100010001000110011001100110100010001000100 3
b1000100010001001000100010001000110011001100110100010001000100 `
b1 #
b1 2
b1 _
1&
1'
#104000
0'
#106000
b1101111010101101110111101010110111011110101011011101111010101101 z"
0&
1'
#108000
0'
#110000
b1101111010101101110111101010110111011110101011011101111010101101 e
b1101111010101101110111101010110111011110101011011101111010101101 "
b1101111010101101110111101010110111011110101011011101111010101101 1
b1101111010101101110111101010110111011110101011011101111010101101 ^
1%
1'
#112000
0'
#114000
0%
1'
#116000
0'
#118000
1'
#120000
0'
#122000
1'
#124000
0'
#126000
1'
#128000
0'
#130000
1'
#132000
0'
#134000
1'
#136000
0'
#138000
1'
#140000
0'
#142000
1'
#144000
0'
#146000
1'
#148000
0'
#150000
1'
#152000
0'
#154000
1'
#156000
0'
#157000
1}
b10000 )
b10000 5
b10000 |
1+
0|"
b10000 {"
b0 ~"
b10000 }"
b1000000 !#
#158000
1{
b10001 P
b10001 f
b10001 #"
1M
b1 ""
b1 %"
0'#
b10001 &#
b10001 )
b10001 5
b10001 |
b10001 {"
b1 ~"
1+
1'
#160000
0'
#162000
b10010 P
b10010 f
b10010 #"
b10001 I
b10001 i
b10001 n
b1 H
b1 j
b1 o
b1 l
1k
b1 $"
b10 %"
0)#
b10010 (#
b10010 )
b10010 5
b10010 |
b10010 {"
b10 ~"
1+
1'
#164000
0'
#166000
b10011 P
b10011 f
b10011 #"
b10 $"
b11 %"
0+#
b10011 *#
b10 l
b1001000010001 I
b1001000010001 i
b1001000010001 n
b10 H
b10 j
b10 o
b10011 )
b10011 5
b10011 |
b10011 {"
b11 ~"
1+
1'
#168000
0'
#170000
b10100 P
b10100 f
b10100 #"
b11 l
b100110001001000010001 I
b100110001001000010001 i
b100110001001000010001 n
b11 H
b11 j
b11 o
b11 $"
b100 %"
0-#
b10100 ,#
b10100 )
b10100 5
b10100 |
b10100 {"
b100 ~"
1+
1'
#172000
0'
#174000
b10101 P
b10101 f
b10101 #"
b100 $"
b101 %"
0/#
b10101 .#
b100 l
b10100000100110001001000010001 I
b10100000100110001001000010001 i
b10100000100110001001000010001 n
b100 H
b100 j
b100 o
b10101 )
b10101 5
b10101 |
b10101 {"
b101 ~"
1+
1'
#176000
0'
#178000
b10110 P
b10110 f
b10110 #"
b101 l
b1010100010100000100110001001000010001 I
b1010100010100000100110001001000010001 i
b1010100010100000100110001001000010001 n
b101 H
b101 j
b101 o
b101 $"
b110 %"
01#
b10110 0#
b10110 )
b10110 5
b10110 |
b10110 {"
b110 ~"
1+
1'
#180000
0'
#182000
b10111 P
b10111 f
b10111 #"
b110 $"
b111 %"
03#
b10111 2#
b110 l
b101100001010100010100000100110001001000010001 I
b101100001010100010100000100110001001000010001 i
b101100001010100010100000100110001001000010001 n
b110 H
b110 j
b110 o
b10111 )
b10111 5
b10111 |
b10111 {"
b111 ~"
1+
1'
#184000
0'
#186000
b11000 P
b11000 f
b11000 #"
b111 l
b10111000101100001010100010100000100110001001000010001 I
b10111000101100001010100010100000100110001001000010001 i
b10111000101100001010100010100000100110001001000010001 n
b111 H
b111 j
b111 o
b111 $"
b1000 %"
05#
b11000 4#
b11000 )
b11000 5
b11000 |
b11000 {"
b1000 ~"
1+
1'
#188000
0'
#190000
b11001 P
b11001 f
b11001 #"
b1000 $"
b1001 %"
07#
b11001 6#
b1000 l
b1100000010111000101100001010100010100000100110001001000010001 I
b1100000010111000101100001010100010100000100110001001000010001 i
b1100000010111000101100001010100010100000100110001001000010001 n
b1000 H
b1000 j
b1000 o
b11001 )
b11001 5
b11001 |
b11001 {"
b1001 ~"
1+
1'
#192000
0'
#194000
b11010 P
b11010 f
b11010 #"
b1001 l
b110010001100000010111000101100001010100010100000100110001001000010001 I
b110010001100000010111000101100001010100010100000100110001001000010001 i
b110010001100000010111000101100001010100010100000100110001001000010001 n
b1001 H
b1001 j
b1001 o
b1001 $"
b1010 %"
09#
b11010 8#
b11010 )
b11010 5
b11010 |
b11010 {"
b1010 ~"
1+
1'
#196000
0'
#198000
b11011 P
b11011 f
b11011 #"
b1010 $"
b1011 %"
0;#
b11011 :#
b1010 l
b11010000110010001100000010111000101100001010100010100000100110001001000010001 I
b11010000110010001100000010111000101100001010100010100000100110001001000010001 i
b11010000110010001100000010111000101100001010100010100000100110001001000010001 n
b1010 H
b1010 j
b1010 o
b11011 )
b11011 5
b11011 |
b11011 {"
b1011 ~"
1+
1'
#200000
0'
